^C:\USERS\USER\DESKTOP\GIT FILES\END PROJECT Y2\ENDPRO\ENDPRO\ENDPRO\DEBUG\DATABASE.OBJ|C:\USERS\USER\DESKTOP\GIT FILES\END PROJECT Y2\ENDPRO\ENDPRO\ENDPRO\DEBUG\GAME.OBJ|C:\USERS\USER\DESKTOP\GIT FILES\END PROJECT Y2\ENDPRO\ENDPRO\ENDPRO\DEBUG\HELPER.OBJ|C:\USERS\USER\DESKTOP\GIT FILES\END PROJECT Y2\ENDPRO\ENDPRO\ENDPRO\DEBUG\MAIN.OBJ|C:\USERS\USER\DESKTOP\GIT FILES\END PROJECT Y2\ENDPRO\ENDPRO\ENDPRO\DEBUG\QUESTION.OBJ|C:\USERS\USER\DESKTOP\GIT FILES\END PROJECT Y2\ENDPRO\ENDPRO\ENDPRO\DEBUG\RECIEVEDMESSAGE.OBJ|C:\USERS\USER\DESKTOP\GIT FILES\END PROJECT Y2\ENDPRO\ENDPRO\ENDPRO\DEBUG\ROOM.OBJ|C:\USERS\USER\DESKTOP\GIT FILES\END PROJECT Y2\ENDPRO\ENDPRO\ENDPRO\DEBUG\SQLITE3.OBJ|C:\USERS\USER\DESKTOP\GIT FILES\END PROJECT Y2\ENDPRO\ENDPRO\ENDPRO\DEBUG\TRIVIASERVER.OBJ|C:\USERS\USER\DESKTOP\GIT FILES\END PROJECT Y2\ENDPRO\ENDPRO\ENDPRO\DEBUG\USER.OBJ|C:\USERS\USER\DESKTOP\GIT FILES\END PROJECT Y2\ENDPRO\ENDPRO\ENDPRO\DEBUG\VALIDATOR.OBJ|C:\USERS\USER\DESKTOP\GIT FILES\END PROJECT Y2\ENDPRO\ENDPRO\ENDPRO\DEBUG\WSAINITIALIZER.OBJ
C:\WINDOWS\SYSTEM32\C_1252.NLS
C:\PROGRAM FILES (X86)\WINDOWS KITS\8.1\LIB\WINV6.3\UM\X86\KERNEL32.LIB
C:\PROGRAM FILES (X86)\WINDOWS KITS\8.1\LIB\WINV6.3\UM\X86\USER32.LIB
C:\PROGRAM FILES (X86)\WINDOWS KITS\8.1\LIB\WINV6.3\UM\X86\GDI32.LIB
C:\PROGRAM FILES (X86)\WINDOWS KITS\8.1\LIB\WINV6.3\UM\X86\WINSPOOL.LIB
C:\PROGRAM FILES (X86)\WINDOWS KITS\8.1\LIB\WINV6.3\UM\X86\COMDLG32.LIB
C:\PROGRAM FILES (X86)\WINDOWS KITS\8.1\LIB\WINV6.3\UM\X86\ADVAPI32.LIB
C:\PROGRAM FILES (X86)\WINDOWS KITS\8.1\LIB\WINV6.3\UM\X86\SHELL32.LIB
C:\PROGRAM FILES (X86)\WINDOWS KITS\8.1\LIB\WINV6.3\UM\X86\OLE32.LIB
C:\PROGRAM FILES (X86)\WINDOWS KITS\8.1\LIB\WINV6.3\UM\X86\OLEAUT32.LIB
C:\PROGRAM FILES (X86)\WINDOWS KITS\8.1\LIB\WINV6.3\UM\X86\UUID.LIB
C:\PROGRAM FILES (X86)\WINDOWS KITS\8.1\LIB\WINV6.3\UM\X86\ODBC32.LIB
C:\PROGRAM FILES (X86)\WINDOWS KITS\8.1\LIB\WINV6.3\UM\X86\ODBCCP32.LIB
C:\USERS\USER\DESKTOP\GIT FILES\END PROJECT Y2\ENDPRO\ENDPRO\ENDPRO\DEBUG\DATABASE.OBJ
C:\USERS\USER\DESKTOP\GIT FILES\END PROJECT Y2\ENDPRO\ENDPRO\ENDPRO\DEBUG\GAME.OBJ
C:\USERS\USER\DESKTOP\GIT FILES\END PROJECT Y2\ENDPRO\ENDPRO\ENDPRO\DEBUG\HELPER.OBJ
C:\USERS\USER\DESKTOP\GIT FILES\END PROJECT Y2\ENDPRO\ENDPRO\ENDPRO\DEBUG\MAIN.OBJ
C:\USERS\USER\DESKTOP\GIT FILES\END PROJECT Y2\ENDPRO\ENDPRO\ENDPRO\DEBUG\QUESTION.OBJ
C:\USERS\USER\DESKTOP\GIT FILES\END PROJECT Y2\ENDPRO\ENDPRO\ENDPRO\DEBUG\RECIEVEDMESSAGE.OBJ
C:\USERS\USER\DESKTOP\GIT FILES\END PROJECT Y2\ENDPRO\ENDPRO\ENDPRO\DEBUG\ROOM.OBJ
C:\USERS\USER\DESKTOP\GIT FILES\END PROJECT Y2\ENDPRO\ENDPRO\ENDPRO\DEBUG\SQLITE3.OBJ
C:\USERS\USER\DESKTOP\GIT FILES\END PROJECT Y2\ENDPRO\ENDPRO\ENDPRO\DEBUG\TRIVIASERVER.OBJ
C:\USERS\USER\DESKTOP\GIT FILES\END PROJECT Y2\ENDPRO\ENDPRO\ENDPRO\DEBUG\USER.OBJ
C:\USERS\USER\DESKTOP\GIT FILES\END PROJECT Y2\ENDPRO\ENDPRO\ENDPRO\DEBUG\VALIDATOR.OBJ
C:\USERS\USER\DESKTOP\GIT FILES\END PROJECT Y2\ENDPRO\ENDPRO\ENDPRO\DEBUG\WSAINITIALIZER.OBJ
C:\WINDOWS\SYSTEM32\TZRES.DLL
C:\WINDOWS\GLOBALIZATION\SORTING\SORTDEFAULT.NLS
C:\PROGRAM FILES (X86)\MICROSOFT VISUAL STUDIO 12.0\VC\LIB\MSVCPRTD.LIB
C:\PROGRAM FILES (X86)\MICROSOFT VISUAL STUDIO 12.0\VC\LIB\MSVCRTD.LIB
C:\PROGRAM FILES (X86)\MICROSOFT VISUAL STUDIO 12.0\VC\LIB\OLDNAMES.LIB
C:\PROGRAM FILES (X86)\WINDOWS KITS\8.1\LIB\WINV6.3\UM\X86\WS2_32.LIB
